module gitlab.com/doertydoerk/tmm

go 1.24

require (
	github.com/briandowns/spinner v1.23.2
	github.com/spf13/cobra v1.9.1
	github.com/stretchr/testify v1.10.0
	howett.net/plist v1.0.1
)

require (
	github.com/davecgh/go-spew v1.1.1 // indirect
	github.com/fatih/color v1.7.0 // indirect
	github.com/inconshreveable/mousetrap v1.1.0 // indirect
	github.com/mattn/go-colorable v0.1.2 // indirect
	github.com/mattn/go-isatty v0.0.8 // indirect
	github.com/pmezard/go-difflib v1.0.0 // indirect
	github.com/spf13/pflag v1.0.6 // indirect
	golang.org/x/sys v0.0.0-20220412211240-33da011f77ad // indirect
	golang.org/x/term v0.1.0 // indirect
	gopkg.in/yaml.v3 v3.0.1 // indirect
)
